"Okres sprawozdawczy:";"Dane roczne";"Kategoria:";"HANDEL";"Grupa:";"SPRZEDAŻ DETALICZNA";"Podgrupa:";"Sprzedaż detaliczna na jednego mieszkańca";"Wymiary:";"Wyszczególnienie, Lata";"Kod";"Jednostka terytorialna";"ogółem";"ogółem";"ogółem";"ogółem";"ogółem";"ogółem";"ogółem";"ogółem";"ogółem";"ogółem";"ogółem";
;;"2002";"2003";"2004";"2005";"2006";"2007";"2008";"2009";"2010";"2011";"2012";
;;"[zł]";"[zł]";"[zł]";"[zł]";"[zł]";"[zł]";"[zł]";"[zł]";"[zł]";"[zł]";"[zł]";
"4320000000";" ZACHODNIOPOMORSKIE";"7840";"8231";"8933";"9081";"9415";"11062";"10589";"11539";"11329";"11920";"12250";